{
    "AutoNames": true,
    "SubFolders": true,
    "OverwriteConfig": false,
    "LoadAllShaders": false,
    "CustomOutputPath": "/JMO Assets/Toony Colors Pro/Shaders Generated/",
    "LastImplementationExportImportPath": "D:/TestTaskStickmanCollector/StickmanCollector/Assets",
    "OpenedFoldouts": [],
    "UseCustomFont": false,
    "CustomFont": {
        "instanceID": 0
    },
    "CustomFontInitialized": false,
    "Upgrade_Hybrid1toHybrid2_Done": true
}